{
  "schemaVersion": 1,
  "id": "wave",
  "version": "${version}",

  "name": "Wave",
  "description": "",
  "authors": ["Antarctic Gardens"],
  "contact": {},

  "license": "BSD-3-Clause",
  "icon": "icon.png",

  "environment": "*",
  "entrypoints": {
    "main": [
      "org.antarcticgardens.wave.fabric.WaveFabric"
    ],
    "client": [
      "org.antarcticgardens.wave.fabric.WaveFabricClient"
    ]
  },
  "mixins": [
    "wave.mixins.json",
    "wave-common.mixins.json"
  ],
  "depends": {
    "fabricloader": ">=0.14.23",
    "minecraft": ">=1.20.1"
  }
}
